Write a Pesonal class have:

Variable: ID, fullName, email, birthday{day,month,year}, position, seniority

Function:
    1. contructor(): Set all value of variable.
        Note: Parameter must have default value.
        Then declare 3 instance by this class.
    2. get age():
    3. get salary():
        Calculate Salary just like we did personal object.
        Salary by position: {
                manager: 1000 USD,
                secterary: 400 USD,
                employee: 300 USD
            }
        Salary by seniority: { 
                Under 12 month: Salary coefficient = 1.2
                12 month -> 24 month: Salary coefficient = 2.0
                24 month -> 36 month: Salary coefficient = 3.4
                Over 36 month: Salary coefficient = 4.5
            }
    4. static highestSalary(): Parameter is a array have all instance person.
        Then find person have highest salary

Final: Call all function one by one at outside of the class.